{
  "resturant": [
    {
      "id": 1,
      "name": "Pizza hut",
      "address": "Nepal",
      "rating": "4.5",
      "email": "bhaskar.ter@gmail.com"
    },
    {
      "id": 2,
      "name": "Burger",
      "address": "kathmandu",
      "rating": "4",
      "email": "gopal.ter@gmail.com"
    },
    {
      "id": 3,
      "name": "Momo house",
      "address": "Dhangadhi",
      "rating": "3",
      "email": "bharat.ter@gmail.com"
    },
    {
      "id": 4,
      "name": "sekawa house",
      "address": "baitadi",
      "rating": "5",
      "email": "naresh.ter@gmail.com"
    }
  ]
}